 public String findComments(String filename) {
  public String findComments(String filename) {
 tring comments = " ";
        try (BufferedInputStream is = new BufferedInputStream(new FileInputStream(file))) {
            int data = 1;
            while (data != -1) {
            //first comment"part of first comment"
            }
                data = is.read();
                if (data == '"') {
                    data = is.read();
                    while (data != '"') {
                        data = is.read();
                    }
                }
                if (data == '/') {
                    data = is.read();
                    if (data == '/') {
                        comments += lineCommentProcessing(is);
                    }
"//comment in quotes"
                    if (data == '*') {
                        //  comments += commentProcessing(is, '*', '/');
                    }
                    /*
                    Block comment


                    firstBlock comment*/
                }
            }
        } catch (FileNotFoundException e) {